Adder/full_adder_nbit/out.vcd
$date
	Thu Dec 05 17:28:05 2024
$end
$version
	Icarus Verilog
$end
$timescale
	1s
$end
$scope module tb $end
$var wire 16 ! s [15:0] $end
$var wire 1 " cout $end
$var parameter 32 # WIDTH_TB $end
$var reg 16 $ a [15:0] $end
$var reg 16 % b [15:0] $end
$var reg 1 & cin $end
$var integer 32 ' seed [31:0] $end
$scope module dut $end
$var wire 16 ( a [15:0] $end
$var wire 16 ) b [15:0] $end
$var wire 1 & cin $end
$var wire 16 * s [15:0] $end
$var wire 17 + n [16:0] $end
$var wire 1 " cout $end
$var parameter 32 , WIDTH $end
$scope begin genblk1[0] $end
$var parameter 2 - i $end
$scope module fa $end
$var wire 1 . a $end
$var wire 1 / b $end
$var wire 1 0 ci $end
$var wire 1 1 co $end
$var wire 1 2 s $end
$upscope $end
$upscope $end
$scope begin genblk1[1] $end
$var parameter 2 3 i $end
$scope module fa $end
$var wire 1 4 a $end
$var wire 1 5 b $end
$var wire 1 6 ci $end
$var wire 1 7 co $end
$var wire 1 8 s $end
$upscope $end
$upscope $end
$scope begin genblk1[2] $end
$var parameter 3 9 i $end
$scope module fa $end
$var wire 1 : a $end
$var wire 1 ; b $end
$var wire 1 < ci $end
$var wire 1 = co $end
$var wire 1 > s $end
$upscope $end
$upscope $end
$scope begin genblk1[3] $end
$var parameter 3 ? i $end
$scope module fa $end
$var wire 1 @ a $end
$var wire 1 A b $end
$var wire 1 B ci $end
$var wire 1 C co $end
$var wire 1 D s $end
$upscope $end
$upscope $end
$scope begin genblk1[4] $end
$var parameter 4 E i $end
$scope module fa $end
$var wire 1 F a $end
$var wire 1 G b $end
$var wire 1 H ci $end
$var wire 1 I co $end
$var wire 1 J s $end
$upscope $end
$upscope $end
$scope begin genblk1[5] $end
$var parameter 4 K i $end
$scope module fa $end
$var wire 1 L a $end
$var wire 1 M b $end
$var wire 1 N ci $end
$var wire 1 O co $end
$var wire 1 P s $end
$upscope $end
$upscope $end
$scope begin genblk1[6] $end
$var parameter 4 Q i $end
$scope module fa $end
$var wire 1 R a $end
$var wire 1 S b $end
$var wire 1 T ci $end
$var wire 1 U co $end
$var wire 1 V s $end
$upscope $end
$upscope $end
$scope begin genblk1[7] $end
$var parameter 4 W i $end
$scope module fa $end
$var wire 1 X a $end
$var wire 1 Y b $end
$var wire 1 Z ci $end
$var wire 1 [ co $end
$var wire 1 \ s $end
$upscope $end
$upscope $end
$scope begin genblk1[8] $end
$var parameter 5 ] i $end
$scope module fa $end
$var wire 1 ^ a $end
$var wire 1 _ b $end
$var wire 1 ` ci $end
$var wire 1 a co $end
$var wire 1 b s $end
$upscope $end
$upscope $end
$scope begin genblk1[9] $end
$var parameter 5 c i $end
$scope module fa $end
$var wire 1 d a $end
$var wire 1 e b $end
$var wire 1 f ci $end
$var wire 1 g co $end
$var wire 1 h s $end
$upscope $end
$upscope $end
$scope begin genblk1[10] $end
$var parameter 5 i i $end
$scope module fa $end
$var wire 1 j a $end
$var wire 1 k b $end
$var wire 1 l ci $end
$var wire 1 m co $end
$var wire 1 n s $end
$upscope $end
$upscope $end
$scope begin genblk1[11] $end
$var parameter 5 o i $end
$scope module fa $end
$var wire 1 p a $end
$var wire 1 q b $end
$var wire 1 r ci $end
$var wire 1 s co $end
$var wire 1 t s $end
$upscope $end
$upscope $end
$scope begin genblk1[12] $end
$var parameter 5 u i $end
$scope module fa $end
$var wire 1 v a $end
$var wire 1 w b $end
$var wire 1 x ci $end
$var wire 1 y co $end
$var wire 1 z s $end
$upscope $end
$upscope $end
$scope begin genblk1[13] $end
$var parameter 5 { i $end
$scope module fa $end
$var wire 1 | a $end
$var wire 1 } b $end
$var wire 1 ~ ci $end
$var wire 1 !" co $end
$var wire 1 "" s $end
$upscope $end
$upscope $end
$scope begin genblk1[14] $end
$var parameter 5 #" i $end
$scope module fa $end
$var wire 1 $" a $end
$var wire 1 %" b $end
$var wire 1 &" ci $end
$var wire 1 '" co $end
$var wire 1 (" s $end
$upscope $end
$upscope $end
$scope begin genblk1[15] $end
$var parameter 5 )" i $end
$scope module fa $end
$var wire 1 *" a $end
$var wire 1 +" b $end
$var wire 1 ," ci $end
$var wire 1 -" co $end
$var wire 1 ." s $end
$upscope $end
$upscope $end
$upscope $end
$upscope $end
$enddefinitions $end
$comment Show the parameter values. $end
$dumpall
b1111 )"
b1110 #"
b1101 {
b1100 u
b1011 o
b1010 i
b1001 c
b1000 ]
b111 W
b110 Q
b101 K
b100 E
b11 ?
b10 9
b1 3
b0 -
b10000 ,
b10000 #
$end
#0
$dumpvars
0."
1-"
1,"
0+"
1*"
0("
1'"
0&"
1%"
1$"
0""
0!"
0~
0}
0|
0z
0y
0x
0w
0v
1t
0s
0r
1q
0p
0n
0m
0l
0k
0j
1h
0g
0f
1e
0d
1b
0a
0`
1_
0^
1\
0[
0Z
0Y
1X
1V
0U
0T
0S
1R
1P
0O
0N
0M
1L
1J
0I
0H
0G
1F
0D
0C
0B
0A
0@
0>
0=
0<
0;
0:
18
07
16
05
04
02
11
10
1/
0.
b11000000000000011 +
b101111110010 *
b100101100000001 )
b1100000011110000 (
b1111000001001010100101001 '
1&
b100101100000001 %
b1100000011110000 $
1"
b101111110010 !
$end
#2
1("
1&"
1T
1!"
1O
1~
0P
1y
1N
1I
1`
1x
1[
1s
0J
0\
0t
1H
1Z
1r
1C
1U
b11111100111110011 +
1m
12
0z
0""
1>
1V
1b
b1100001101000111 !
b1100001101000111 *
1."
1.
1@
0F
0L
1d
1j
1p
1v
1|
1;
1A
1G
1M
1S
0_
0e
1k
0q
1+"
b1111111011001001 $
b1111111011001001 (
b1100010001111101 %
b1100010001111101 )
b1111101100100111000011011010110 '
#4
0"
0-"
0Z
0U
0,"
0T
0'"
0O
1P
0N
0&"
0I
0!"
1J
0r
1""
1<
0H
1f
0m
0~
17
0C
02
0b
1a
1h
1n
1z
b1001100000111 +
0y
1("
1."
08
1>
1D
1V
0\
b1111011001111100 !
b1111011001111100 *
0t
0.
1L
1^
0d
0j
0v
0|
0$"
0*"
15
0;
0A
0M
0S
1Y
1q
1}
b100111101000 $
b100111101000 (
b1110110010010011 %
b1110110010010011 )
b10010011110100011101011101011111 '
#6
1Z
1U
0V
1T
1O
0P
0>
1h
1N
0<
1f
1I
07
1a
0b
0J
1z
18
1`
1r
1&"
1H
1x
06
1B
1[
1l
1m
1!"
1C
1s
01
1=
0\
1g
1n
0""
1D
0t
1("
0."
b101011000001010 !
b101011000001010 *
02
1:
0R
0X
1d
1j
1|
0/
1;
1A
1S
1e
0q
0%"
0+"
00
b10111100101100 $
b10111100101100 (
b10011011011110 %
b10011011011110 )
b101111111111000 +
0&
b11011110010110000100101000010100 '
#8
0N
0r
1<
0I
0m
17
1D
1J
1B
08
0H
0T
0l
1=
16
0C
0P
0O
0V
0g
1n
0>
0t
11
b101011000011000 !
b101011000011000 *
02
1.
0@
0L
1R
0d
0j
0;
0A
0e
1q
10
b10100101000101 $
b10100101000101 (
b10110011010010 %
b10110011010010 )
b101001110001111 +
1&
b11010010100010100101011000000101 '
#10
1T
1O
0z
1("
1N
1Z
0h
0<
0x
1&"
1I
1U
0f
1l
1~
07
0s
1!"
16
0J
0V
1\
1b
0a
1g
1y
18
0>
0P
1n
1t
0""
11
b100110110001010 !
b100110110001010 *
02
1F
0R
1X
0^
1d
1v
1/
05
1;
1M
1e
0k
0q
1w
0}
00
b11101010010101 $
b11101010010101 (
b1001011110101 %
b1001011110101 )
b110010111101010 +
0&
b11110101001010100010001100000010 '
#12
0\
0Z
0x
0U
0s
1V
1>
0N
0l
1t
0~
0("
0B
0H
0T
1<
0I
0g
0r
0y
0&"
0=
0C
0O
08
17
1J
1h
1n
0m
1z
0""
0!"
1D
0P
1."
b1001111101011101 !
b1001111101011101 *
12
14
0:
0F
1R
0d
1j
0v
0|
0;
1A
0M
0S
1+"
10
b110011000011 $
b110011000011 (
b1001001010011001 %
b1001001010011001 )
b100000111 +
1&
b10011001100001110010001010011011 '
#14
1"
1-"
0."
1,"
1'"
1&"
1!"
1l
1g
1~
1y
0h
0z
0>
1`
1Z
1f
1x
0<
1[
1U
1a
1s
18
b11111011110000011 +
07
0\
1n
0""
02
1P
0V
0b
0t
b10000111010 !
b10000111010 *
0("
04
1@
0X
0j
1v
1|
0/
0A
1M
1S
1_
1q
0w
1%"
b11100001001001 $
b11100001001001 (
b1100101111110000 %
b1100101111110000 )
b11110000100100111001010100100000 '
#16
0n
0l
0"
0g
1~
0-"
1y
1h
0z
1."
1N
1T
1Z
0f
1x
0,"
1I
1O
1r
0&"
1U
0a
1s
0'"
0J
1P
1\
1m
1""
b11100111100011 +
0!"
0V
1b
0t
b1010001110101010 !
b1010001110101010 *
0("
0.
0@
1F
1L
1X
1j
0|
1/
1A
0S
0_
1k
0q
0%"
b1110011110000 $
b1110011110000 (
b1000011010111001 %
b1000011010111001 )
b10111001111000010000101010100001 '
#18
1"
1-"
0."
08
1("
0r
1,"
06
1&"
0m
1'"
01
0""
1!"
0D
0P
0\
0h
0t
b100000100000001 !
b100000100000001 *
12
0R
0j
0v
1|
1$"
1*"
0A
0M
1S
0Y
0e
0k
1q
1w
1%"
0+"
00
b1110100010110000 $
b1110100010110000 (
b101100001010001 %
b101100001010001 )
b11111000111100000 +
0&
b1010001011000001010111111101110 '
